module isa-funds-api

go 1.18

require (
	github.com/google/uuid v1.3.1
	github.com/stretchr/testify v1.8.1
	gorm.io/driver/postgres v1.5.2
	gorm.io/gorm v1.25.4
)

require (
	github.com/davecgh/go-spew v1.1.1 // indirect
	github.com/jackc/pgpassfile v1.0.0 // indirect
	github.com/jackc/pgservicefile v0.0.0-20221227161230-091c0ba34f0a // indirect
	github.com/jackc/pgx/v5 v5.3.1 // indirect
	github.com/jinzhu/inflection v1.0.0 // indirect
	github.com/jinzhu/now v1.1.5 // indirect
	github.com/kr/text v0.2.0 // indirect
	github.com/pmezard/go-difflib v1.0.0 // indirect
	github.com/rogpeppe/go-internal v1.11.0 // indirect
	golang.org/x/crypto v0.8.0 // indirect
	golang.org/x/text v0.9.0 // indirect
	gopkg.in/yaml.v3 v3.0.1 // indirect
)
